{
  "env": {
    "n_ues": 128,
    "n_prbs": 10,
    "buffer_max_size": 100,
    "eirp_dbm": 13,
    "f_carrier_mhz": 2655,
    "max_pkt_size_bits": 5096,
    "non_gbr_traffic_mean_interarrival_time_ttis": 10
  }
}
